Machine Learning for Water Management
…
.footnote[
https://paleolimbot.shinyapps.io/edwards97/
]

---
class: center, middle, inverse

# The Utility of the Hypothetical

---
class: center, middle

```
## # A tibble: 500 x 6
##    coagulant   DOC  dose    pH  UV254 DOC_final
##    <chr>     <dbl> <dbl> <dbl>  <dbl>     <dbl>
##  1 Alum       1.8  0.416  6.03 0.026       1.03
##  2 Alum       1.8  0.446  5.85 0.026       1.08
##  3 Alum       1.8  0.292  6.26 0.026       1.08
##  4 Alum       2.56 0.471  4.9  0.0900      1.08
##  5 Alum       1.8  0.354  6.19 0.026       1.1 
##  6 Alum       1.8  0.385  6.05 0.026       1.16
##  7 Alum       1.8  0.229  6.52 0.026       1.17
##  8 Alum       1.8  0.197  6.63 0.026       1.18
##  9 Alum       2.56 0.168  6.1  0.0900      1.19
## 10 Alum       2.56 0.337  6    0.0900      1.2 
## # … with 490 more rows
```
…
.footnote[
https://www.kaggle.com/c/dogs-vs-cats/data ([image source](https://blog.usejournal.com/why-deep-learning-works-differently-than-we-thought-ec28823bdbc))
]

---
class: center, middle

```
## # A tibble: 500 x 6
##    coagulant   DOC  dose    pH  UV254 DOC_final
##    <chr>     <dbl> <dbl> <dbl>  <dbl>     <dbl>
##  1 Alum       1.8  0.416  6.03 0.026       1.03
##  2 Alum       1.8  0.446  5.85 0.026       1.08
##  3 Alum       1.8  0.292  6.26 0.026       1.08
##  4 Alum       2.56 0.471  4.9  0.0900      1.08
##  5 Alum       1.8  0.354  6.19 0.026       1.1 
##  6 Alum       1.8  0.385  6.05 0.026       1.16
##  7 Alum       1.8  0.229  6.52 0.026       1.17
##  8 Alum       1.8  0.197  6.63 0.026       1.18
##  9 Alum       2.56 0.168  6.1  0.0900      1.19
## 10 Alum       2.56 0.337  6    0.0900      1.2 
## # … with 490 more rows
```
…
