…
In 2018, the first (to my knowledge) [Bayesian <sup>210</sup>Pb interpretation paper](https://doi.org/10.1007/s13253-018-0328-7) was published, and included a [program to do the interpretation](https://github.com/maquinolopez/Plum). Having just wrote an [R package implementing the CIC and CRS models](http://github.com/paleolimbot/pb210), I thought I'd give it a go! It turns out that the program as written is difficult to use (the authors acknowledge that this version is just a draft, and the paper indicates that it may be translated to C++ in the future). Still, it's a massive step forward for those of us that rely on <sup>210</sup>Pb dating (which is almost all of us paleolimnologists).

### Some data

I'll use the Alta Lake <sup>210</sup>Pb measurements I have from my [first published paper](https://doi.org/10.1007/s10933-016-9919-x), which also happens to be the sample dataset for the [pb210 package](http://github.com/paleolimbot/pb210).

``` r
library(pb210)
alta_lake_pb210
```

    ## # A tibble: 32 x 13
    ##    sample_id depth_cm total_pb210_Bq_… total_pb210_sd section_start_cm
    ##    <chr>        <dbl>            <dbl>          <dbl>            <dbl>
    ##  1 AL-GC2-0      0.25            338.            8.71              0  
    ##  2 AL-GC2-0…     0.75             NA            NA                 0.5
    ##  3 AL-GC2-1      1.25            415.           11.8               1  
    ##  4 AL-GC2-1…     1.75            411.           11.0               1.5
    ##  5 AL-GC2-2      2.5             378.           10.5               2  
    ##  6 AL-GC2-3      3.5             237.            7.79              3  
    ##  7 AL-GC2-4      4.5             146.            5.25              4  
    ##  8 AL-GC2-5      5.5             117.            4.61              5  
    ##  9 AL-GC2-6      6.5              67.5           3.86              6  
    ## 10 AL-GC2-7      7.5              54.6           3.44              7  
    ## # … with 22 more rows, and 8 more variables: section_end_cm <dbl>,
    ## #   water_percent <dbl>, slice_mass_g <dbl>, dry_density_cm3 <dbl>,
    ## #   c_percent <dbl>, n_percent <dbl>, published_age_yr <dbl>,
    ## #   published_age_sd <dbl>
…
alta_lake_ages <- alta_lake_pb210 %>%
  mutate(plum_raw = map(depth_cm, plum_ages)) %>%
  unnest()
```

``` r
alta_lake_ages %>%
  select(depth_cm, mean_age, lower_age, upper_age)
```

    ## # A tibble: 32 x 4
    ##    depth_cm mean_age lower_age upper_age
    ##       <dbl>    <dbl>     <dbl>     <dbl>
    ##  1     0.25     2.48      2.22      2.69
    ##  2     0.75     7.43      6.65      8.08
    ##  3     1.25    16.1      14.3      17.2 
    ##  4     1.75    24.9      21.9      26.8 
    ##  5     2.5     35.7      30.5      38.7 
    ##  6     3.5     49.5      40.6      54.8 
    ##  7     4.5     64.6      50.2      73.5 
    ##  8     5.5     82.7      59.1      98.6 
    ##  9     6.5    100.       65.3     131.  
    ## 10     7.5    116.       69.2     177.  
    ## # … with 22 more rows
…
