R, the tidyverse, and ggplot2
…
---

# ggplot2

```r
library(unienrollment)
income
```

```
## # A tibble: 480 x 7
##     year degree_type program_class  gender income_5yr income_2yr n_students
##    <dbl> <chr>       <chr>          <chr>       <dbl>      <dbl>      <dbl>
##  1  2010 Doctoral    Aboriginal an… Femal…      60000      58100         30
##  2  2010 Doctoral    Agriculture, … Femal…      76800      60200         20
##  3  2010 Doctoral    Agriculture, … Males       60500      38600         30
##  4  2010 Doctoral    Agriculture, … Femal…      70100      55900         50
##  5  2010 Doctoral    Agriculture, … Males       70000      51300         60
##  6  2010 Doctoral    Architecture,… Femal…      71200      53500        145
##  7  2010 Doctoral    Architecture,… Males       87100      74700        510
##  8  2010 Doctoral    Biological an… Femal…      56600      41700        275
##  9  2010 Doctoral    Biological an… Males       58100      37500        225
## 10  2010 Doctoral    Business, man… Femal…     105200      96300         60
## # … with 470 more rows
```
…
# dplyr + ggplot2

```r
income_common <- income %>% 
  mutate(
    program_class = fct_lump(program_class, n = 5, w = n_students)
  ) %>% 
  filter(degree_type != "Associate")

income_common
```

```
## # A tibble: 470 x 7
##     year degree_type program_class  gender income_5yr income_2yr n_students
##    <dbl> <chr>       <fct>          <chr>       <dbl>      <dbl>      <dbl>
##  1  2010 Doctoral    Other          Femal…      60000      58100         30
##  2  2010 Doctoral    Other          Femal…      76800      60200         20
##  3  2010 Doctoral    Other          Males       60500      38600         30
##  4  2010 Doctoral    Other          Femal…      70100      55900         50
##  5  2010 Doctoral    Other          Males       70000      51300         60
##  6  2010 Doctoral    Other          Femal…      71200      53500        145
##  7  2010 Doctoral    Other          Males       87100      74700        510
##  8  2010 Doctoral    Other          Femal…      56600      41700        275
##  9  2010 Doctoral    Other          Males       58100      37500        225
## 10  2010 Doctoral    Business, man… Femal…     105200      96300         60
## # … with 460 more rows
```
…
