Rethinking long-term (paleo)environmental data: collecting data for future generations
…
.footnote[
Dunnington and Spooner (2017) https://doi.org/10.1139/facets-2017-0026
]

---

# Case study: collected data

```r
md %>% tbl_locations()
```

```
## # A tibble: 58 x 17
##    dataset location lake_name year_max references   lon   lat short_name
##    <chr>   <chr>    <chr>        <dbl> <chr>      <dbl> <dbl> <chr>     
##  1 norton  Bear P.… Bear Pond    1982. @charles_…    NA    NA Bear      
##  2 norton  Big Moo… Big Moos…    1982. @charles_…    NA    NA Big Moose 
##  3 norton  CARR PD. Carr Pond    1982  <NA>          NA    NA Carr      
##  4 norton  Clear P… Clear Po…    1982. @charles_…    NA    NA Clear     
##  5 norton  Deep L.… Deep Lake    1983. @charles_…    NA    NA Deep      
##  6 norton  EAST CH… East Cha…    1979  @davis_et…    NA    NA East Chai…
##  7 norton  FISH RI… Fish Riv…    1982  @hanson_e…    NA    NA Fish River
##  8 norton  FOURTH … Fourth L…    1982  @norton_k…    NA    NA Fourth    
##  9 norton  HAYSTAC… Haystack…    1983  @davis_et…    NA    NA Haystack  
## 10 norton  KLONDIK… Klondike…    1978  @davis_et…    NA    NA Klondike  
## # … with 48 more rows, and 9 more variables: lake_lon <dbl>,
## #   lake_lat <dbl>, region <chr>, region_colour <chr>,
## #   surface_area_ha <dbl>, max_depth_m <dbl>, elevation_m <dbl>,
## #   watershed_area_ha <dbl>, catchment_surface_area_ratio <dbl>
```

---

# Case study: collected data

```r
md %>% tbl_params()
```

```
## # A tibble: 43 x 2
##    dataset param
##    <chr>   <chr>
##  1 norton  Pb210
##  2 norton  Cs137
##  3 norton  LOD  
##  4 norton  LOI  
##  5 norton  Ti   
##  6 norton  Al   
##  7 norton  Fe   
##  8 norton  Mn   
##  9 norton  Ca   
## 10 norton  Mg   
## # … with 33 more rows
```

---

# Case study: collected data

```r
md %>% tbl_data()
```

```
## # A tibble: 37,907 x 14
##    dataset location param depth value unit  error element_param unit_ratio
##    <chr>   <chr>    <chr> <dbl> <dbl> <chr> <dbl> <chr>              <dbl>
##  1 norton  EAST CH… Pb210  0.75 999   Bq/kg    NA <NA>                  37
##  2 norton  EAST CH… Pb210  1.75 936.  Bq/kg    NA <NA>                  37
##  3 norton  EAST CH… Pb210  3.75 636.  Bq/kg    NA <NA>                  37
##  4 norton  EAST CH… Pb210  4.25 792.  Bq/kg    NA <NA>                  37
##  5 norton  EAST CH… Pb210  4.75 844.  Bq/kg    NA <NA>                  37
##  6 norton  EAST CH… Pb210  5.75 866.  Bq/kg    NA <NA>                  37
##  7 norton  EAST CH… Pb210  6.75 599.  Bq/kg    NA <NA>                  37
##  8 norton  EAST CH… Pb210  8.25 359.  Bq/kg    NA <NA>                  37
##  9 norton  EAST CH… Pb210 10.8  104.  Bq/kg    NA <NA>                  37
## 10 norton  EAST CH… Pb210 12.2   70.3 Bq/kg    NA <NA>                  37
## # … with 37,897 more rows, and 5 more variables: xrf_id <chr>, err <dbl>,
## #   err_type <chr>, n <int>, n_finite <int>
```
…
