…
  bind_rows(
    files,
    map_dfr(dirs, list_ftp_recursive)
  )
}

normals_files <- list_ftp_recursive("ftp://ftp.tor.ec.gc.ca/Pub/Normals/ENGLISH/")
normals_files %>%
  select(name, url)
```

    ## # A tibble: 30 x 2
    ##    name               url                                                  
    ##    <chr>              <chr>                                                
    ##  1 ALTA_ACAD-FIVE_EN… ftp://ftp.tor.ec.gc.ca/Pub/Normals/ENGLISH/ALTA/ALTA…
    ##  2 ALTA_FORE-ROCK_EN… ftp://ftp.tor.ec.gc.ca/Pub/Normals/ENGLISH/ALTA/ALTA…
    ##  3 ALTA_RONA-WORS_EN… ftp://ftp.tor.ec.gc.ca/Pub/Normals/ENGLISH/ALTA/ALTA…
    ##  4 BC_100-COWI_ENG.c… ftp://ftp.tor.ec.gc.ca/Pub/Normals/ENGLISH/BC/BC_100…
    ##  5 BC_CRAN-JOE_ENG.c… ftp://ftp.tor.ec.gc.ca/Pub/Normals/ENGLISH/BC/BC_CRA…
    ##  6 BC_KAML-NORT_ENG.… ftp://ftp.tor.ec.gc.ca/Pub/Normals/ENGLISH/BC/BC_KAM…
    ##  7 BC_OCHI-SILV_ENG.… ftp://ftp.tor.ec.gc.ca/Pub/Normals/ENGLISH/BC/BC_OCH…
    ##  8 BC_SIMI-WOOD_ENG.… ftp://ftp.tor.ec.gc.ca/Pub/Normals/ENGLISH/BC/BC_SIM…
    ##  9 BC_YOHO-YOHO_ENG.… ftp://ftp.tor.ec.gc.ca/Pub/Normals/ENGLISH/BC/BC_YOH…
    ## 10 MAN_ALEX-OCHR_ENG… ftp://ftp.tor.ec.gc.ca/Pub/Normals/ENGLISH/MAN/MAN_A…
    ## # … with 20 more rows
…
climate_normals_raw
```

    ## # A tibble: 1,359,781 x 16
    ##    climate_id station_name province latitude_decima… longitude_decim…
    ##    <chr>      <chr>        <chr>               <dbl>            <dbl>
    ##  1 3020025    ACADIA VALL… ALTA                 51.2            -110.
    ##  2 3020025    ACADIA VALL… ALTA                 51.2            -110.
    ##  3 3020025    ACADIA VALL… ALTA                 51.2            -110.
    ##  4 3020025    ACADIA VALL… ALTA                 51.2            -110.
    ##  5 3020025    ACADIA VALL… ALTA                 51.2            -110.
    ##  6 3020025    ACADIA VALL… ALTA                 51.2            -110.
    ##  7 3020025    ACADIA VALL… ALTA                 51.2            -110.
    ##  8 3020025    ACADIA VALL… ALTA                 51.2            -110.
    ##  9 3020025    ACADIA VALL… ALTA                 51.2            -110.
    ## 10 3020025    ACADIA VALL… ALTA                 51.2            -110.
    ## # … with 1,359,771 more rows, and 11 more variables: elevation <dbl>,
    ## #   normal_id <dbl>, normal_element_name <chr>, month <dbl>, value <dbl>,
    ## #   monthly_normal_code <chr>, annual_normal_code <chr>,
    ## #   station_normal_code <chr>, first_occurrence_date <chr>,
    ## #   first_year <dbl>, last_year <dbl>
…
climate_normals
```

    ## Simple feature collection with 21240 features and 7 fields
    ## geometry type:  POINT
    ## dimension:      XY
    ## bbox:           xmin: -2325537 ymin: -691201.7 xmax: 3003840 ymax: 3810547
    ## epsg (SRID):    3978
    ## proj4string:    +proj=lcc +lat_1=49 +lat_2=77 +lat_0=49 +lon_0=-95 +x_0=0 +y_0=0 +ellps=GRS80 +towgs84=0,0,0,0,0,0,0 +units=m +no_defs
    ## # A tibble: 21,240 x 8
    ##    climate_id month mean_temp total_precip station_name province elevation
    ##    <chr>      <dbl>     <dbl>        <dbl> <chr>        <chr>        <dbl>
    ##  1 1011467        1        NA        139   CENTRAL SAA… BC            53.3
    ##  2 1011467        2        NA         97.5 CENTRAL SAA… BC            53.3
    ##  3 1011467        3        NA         71.5 CENTRAL SAA… BC            53.3
    ##  4 1011467        4        NA         61.0 CENTRAL SAA… BC            53.3
    ##  5 1011467        5        NA         44.5 CENTRAL SAA… BC            53.3
    ##  6 1011467        6        NA         33.6 CENTRAL SAA… BC            53.3
    ##  7 1011467        7        NA         21.8 CENTRAL SAA… BC            53.3
    ##  8 1011467        8        NA         24.0 CENTRAL SAA… BC            53.3
    ##  9 1011467        9        NA         24.0 CENTRAL SAA… BC            53.3
    ## 10 1011467       10        NA         73.0 CENTRAL SAA… BC            53.3
    ## # … with 21,230 more rows, and 1 more variable: geometry <POINT [m]>
…
