…
planes_models_keep <- planes_models %>%
  filter(mfr == "BOEING", str_detect(model, "^737")) %>%
  mutate(model_label = if_else(str_detect(model, "^737-[89]$"), "737 MAX", "737")) %>%
  select(mfr_mdl_code = code, model_label, model_mfr = mfr, model)

planes_models_keep
```

    ## # A tibble: 606 x 4
    ##    mfr_mdl_code model_label model_mfr model  
    ##    <chr>        <chr>       <chr>     <chr>  
    ##  1 1382526      737         BOEING    737-66N
    ##  2 1382527      737         BOEING    737-7K2
    ##  3 1382528      737         BOEING    737-9K2
    ##  4 1382529      737         BOEING    737-8DR
    ##  5 1382530      737         BOEING    737-8DV
    ##  6 1382531      737         BOEING    737-7HF
    ##  7 1382532      737         BOEING    737-46J
    ##  8 1382540      737         BOEING    737-6Q8
    ##  9 1383333      737         BOEING    737-2E7
    ## 10 1384400      737         BOEING    737-7FB
    ## # … with 596 more rows
…
planes_keep <- planes_master %>%
  inner_join(planes_models_keep, by = "mfr_mdl_code") %>%
  mutate(tail_num = paste0("N", n_number)) %>%
  select(tail_num, model_label, model_mfr, model, model_year = year_mfr)

planes_keep
```

    ## # A tibble: 2,197 x 5
    ##    tail_num model_label model_mfr model   model_year
    ##    <chr>    <chr>       <chr>     <chr>        <int>
    ##  1 N103WT   737         BOEING    737-700         NA
    ##  2 N108MS   737         BOEING    737-7BC       2002
    ##  3 N108WT   737         BOEING    737-700         NA
    ##  4 N11206   737         BOEING    737-824       2000
    ##  5 N114JF   737         BOEING    737-4H6       1993
    ##  6 N12216   737         BOEING    737-824       1998
    ##  7 N12218   737         BOEING    737-824       1998
    ##  8 N12221   737         BOEING    737-824       1998
    ##  9 N12225   737         BOEING    737-824       1998
    ## 10 N12238   737         BOEING    737-824       1999
    ## # … with 2,187 more rows
…
